<mxfile host="app.diagrams.net" modified="2023-08-15T13:53:51.168Z" agent="Mozilla/5.0 (Macintosh; Intel Mac OS X 10_15_7) AppleWebKit/537.36 (KHTML, like Gecko) Chrome/115.0.0.0 Safari/537.36" etag="cGpDsTjK1yFG8T8qyMQT" version="21.6.8" type="gitlab">
  <diagram name="Page-1" id="W9qg9lVZVd_GNmrb0Hls">
    <mxGraphModel dx="1434" dy="790" grid="1" gridSize="10" guides="1" tooltips="1" connect="1" arrows="1" fold="1" page="1" pageScale="1" pageWidth="850" pageHeight="1100" math="0" shadow="0">
      <root>
        <mxCell id="0" />
        <mxCell id="1" parent="0" />
        <mxCell id="KzPXdcWcmNpggIfREuhX-1" value="Main goroutine" style="rounded=0;whiteSpace=wrap;html=1;fillColor=#d5e8d4;strokeColor=#82b366;" vertex="1" parent="1">
          <mxGeometry x="40" y="150" width="760" height="30" as="geometry" />
        </mxCell>
        <mxCell id="KzPXdcWcmNpggIfREuhX-2" value="cetak Halo goroutine" style="rounded=0;whiteSpace=wrap;html=1;fillColor=#fff2cc;strokeColor=#d6b656;" vertex="1" parent="1">
          <mxGeometry x="40" y="200" width="620" height="30" as="geometry" />
        </mxCell>
        <mxCell id="KzPXdcWcmNpggIfREuhX-3" value="cetak Hi goroutine" style="rounded=0;whiteSpace=wrap;html=1;fillColor=#fff2cc;strokeColor=#d6b656;" vertex="1" parent="1">
          <mxGeometry x="40" y="250" width="660" height="30" as="geometry" />
        </mxCell>
        <mxCell id="KzPXdcWcmNpggIfREuhX-4" value="cetak Bye goroutine" style="rounded=0;whiteSpace=wrap;html=1;fillColor=#fff2cc;strokeColor=#d6b656;" vertex="1" parent="1">
          <mxGeometry x="40" y="300" width="650" height="30" as="geometry" />
        </mxCell>
        <mxCell id="KzPXdcWcmNpggIfREuhX-5" value="" style="endArrow=classic;html=1;rounded=0;dashed=1;" edge="1" parent="1">
          <mxGeometry width="50" height="50" relative="1" as="geometry">
            <mxPoint x="40" y="350" as="sourcePoint" />
            <mxPoint x="800" y="350" as="targetPoint" />
          </mxGeometry>
        </mxCell>
        <mxCell id="KzPXdcWcmNpggIfREuhX-6" value="Time" style="text;html=1;align=center;verticalAlign=middle;resizable=0;points=[];autosize=1;strokeColor=none;fillColor=none;" vertex="1" parent="1">
          <mxGeometry x="770" y="354" width="50" height="30" as="geometry" />
        </mxCell>
        <mxCell id="KzPXdcWcmNpggIfREuhX-7" value="Wait 1 second" style="text;html=1;align=center;verticalAlign=middle;resizable=0;points=[];autosize=1;strokeColor=none;fillColor=none;" vertex="1" parent="1">
          <mxGeometry x="700" y="120" width="100" height="30" as="geometry" />
        </mxCell>
      </root>
    </mxGraphModel>
  </diagram>
</mxfile>
